<svg xmlns="http://www.w3.org/2000/svg" width="80" height="80" viewBox="0 0 80 80">
    <g fill="none" fill-rule="evenodd">
        <circle cx="40" cy="40" r="40" fill="#F4F5F7"/>
        <path fill="#87BBFD" d="M37.972 40.221v-7.348c0-.078 0-.158.018-.232a.446.446 0 0 1 .443-.33c.913-.003 1.827-.004 2.74 0 .266 0 .452.193.464.457.002.035 0 .07 0 .105v12.76c0 .391-.17.564-.557.564h-2.566c-.371 0-.542-.17-.542-.541V40.22z"/>
        <path fill="#0052CC" d="M36.222 40.437l.002-.506c.002-.326-.182-.55-.544-.545-.862.01-1.725.01-2.589 0-.366-.005-.545.222-.544.545.004 2.39.002 3.329.002 5.72 0 .367.178.546.542.546h2.565c.396 0 .566-.17.566-.57v-4.67-.52zM47.045 43.972v-5.66-.521-.014-.043l.002-.448c.002-.326-.182-.55-.544-.546-.277.004-2.272.004-2.589 0a.588.588 0 0 0-.32.077c-.138.085-.212.234-.223.42a603.602 603.602 0 0 1 .001 3.12l.001.98v4.313c0 .368.177.546.541.546h2.566c.396 0 .565-.17.565-.569v-1.645l.004-.007-.004-.003z"/>
        <path fill="#87BBFD" d="M49.132 26.862c-.086.117-.124.177-.17.23-.946 1.074-1.895 2.146-2.836 3.225-.136.155-.228.173-.413.055-4.034-2.554-9.475-2.166-13.11.924-4.3 3.658-5.354 9.771-2.343 14.454 2.644 4.11 6.495 5.862 11.37 5.298.041-.004.082-.014.154-.027.512 1.52 1.02 3.027 1.555 4.609-.819.093-1.599.216-2.383.265-3.34.21-6.485-.483-9.347-2.225-4.169-2.537-6.714-6.24-7.564-11.05-.66-3.737-.072-7.309 1.82-10.606 2.487-4.336 6.217-7.015 11.131-7.948 3.635-.691 7.101-.105 10.347 1.685.607.334 1.18.73 1.789 1.111z"/>
        <path fill="#0052CC" d="M46.568 54.42c-.52-1.54-1.003-2.982-1.5-4.421-.07-.205.042-.252.177-.326 1.234-.68 2.34-1.517 3.24-2.615 1.587-1.937 2.449-4.156 2.543-6.654.106-2.831-.748-5.36-2.511-7.582-.053-.067-.083-.234-.041-.283 1.005-1.158 2.021-2.308 3.085-3.515 3.335 3.77 4.874 8.103 4.178 13.072-.8 5.716-3.98 9.751-9.17 12.325z"/>
    </g>
</svg>
