<svg xmlns="http://www.w3.org/2000/svg" width="80" height="80" viewBox="0 0 80 80">
    <g fill="none" fill-rule="evenodd">
        <circle cx="40" cy="40" r="40" fill="#F4F5F7"/>
        <path fill="#87BBFD" d="M48.137 28.051h-5.121a3.43 3.43 0 0 0-3.414-3.414 3.43 3.43 0 0 0-3.414 3.414h-5.121c-2.81 0-5.121 2.312-5.121 5.121v17.07c0 2.81 2.312 5.12 5.12 5.12h17.07c2.81 0 5.121-2.31 5.121-5.12v-17.07c0-2.81-2.311-5.12-5.12-5.12z"/>
        <path fill="#87BBFD" d="M51.55 50.242a3.434 3.434 0 0 1-3.413 3.414h-17.07a3.434 3.434 0 0 1-3.414-3.414v-17.07a3.434 3.434 0 0 1 3.414-3.414h1.707c0 .937.77 1.707 1.707 1.707h10.242c.936 0 1.707-.77 1.707-1.707h1.707a3.434 3.434 0 0 1 3.413 3.414v17.07z"/>
        <path fill="#0052CC" d="M32.774 40h3.414c.936 0 1.707-.77 1.707-1.707v-3.414c0-.936-.77-1.707-1.707-1.707h-3.414c-.937 0-1.707.77-1.707 1.707v3.414c0 .936.77 1.707 1.707 1.707z"/>
        <path fill="#FFF" d="M48.137 36.586c0 .937-.771 1.707-1.707 1.707h-3.414c-.937 0-1.707-.77-1.707-1.707 0-.936.77-1.707 1.707-1.707h3.414c.936 0 1.707.77 1.707 1.707z"/>
        <g>
            <path fill="#0052CC" d="M37.64 44.879l-2.014 1.996 1.858 1.902c.163.16.254.382.254.613a.847.847 0 0 1-.832.852.824.824 0 0 1-.6-.26L34.43 48.06l-1.95 1.932a.823.823 0 0 1-.58.24.847.847 0 0 1-.832-.853c0-.23.091-.452.253-.612l1.931-1.912-1.94-1.986a.863.863 0 0 1-.234-.592c0-.468.376-.852.833-.852.215 0 .423.085.578.239l1.96 2.005 2.035-2.015a.823.823 0 0 1 .58-.24c.456 0 .832.385.832.852 0 .231-.092.452-.254.613z"/>
            <path fill="#FFF" d="M48.137 46.828c0 .936-.771 1.707-1.707 1.707h-3.414c-.937 0-1.707-.77-1.707-1.707s.77-1.707 1.707-1.707h3.414c.936 0 1.707.77 1.707 1.707z"/>
        </g>
    </g>
</svg>
