<svg xmlns="http://www.w3.org/2000/svg" width="74" height="74" viewBox="0 0 74 74">
    <g fill="none" fill-rule="evenodd">
        <circle cx="37" cy="37" r="37" fill="#FCEDC0"/>
        <path fill="#F4BD61" d="M45.96 23H28.04A5.046 5.046 0 0 0 23 28.04v17.92c0 2.78 2.261 5.04 5.04 5.04h17.92c2.78 0 5.04-2.26 5.04-5.04V28.04c0-2.779-2.26-5.04-5.04-5.04z"/>
        <path fill="#FCEDC0" stroke="#FCEDC0" d="M44.28 33.64a.56.56 0 1 1-1.12 0v-2.008L31.632 43.16h2.2a.56.56 0 1 1 0 1.12H30.28a.562.562 0 0 1-.56-.56v-3.552a.56.56 0 1 1 1.12 0v2.2L42.368 30.84h-2.2a.56.56 0 1 1 0-1.12h3.552a.562.562 0 0 1 .56.56v3.36z"/>
    </g>
</svg>
