<svg xmlns="http://www.w3.org/2000/svg" width="1389" height="576" viewBox="0 0 1389 576">
    <g fill="none" fill-rule="evenodd">
        <g opacity=".3">
            <path fill="#87BBFD" d="M53.553 12.18c-7.512.922-12.91 7.785-11.984 15.337.923 7.511 7.786 12.91 15.338 11.983a13.83 13.83 0 0 0 6.778-2.8l.46-.35 7.033 5.42c.463.362 1.03.543 1.65.467a2.272 2.272 0 0 0 1.486-.852c.362-.464.544-1.03.468-1.65-.076-.619-.384-1.084-.853-1.487l-6.894-5.312.44-.85c1.249-2.457 1.75-5.2 1.415-7.923-.927-7.553-7.785-12.91-15.337-11.984z"/>
            <path fill="#FFF" d="M56.446 35.745c-5.489.674-10.493-3.236-11.167-8.725-.674-5.49 3.236-10.494 8.725-11.168 5.489-.674 10.493 3.236 11.167 8.725.674 5.49-3.236 10.494-8.725 11.168z"/>
            <path fill="#0052CC" d="M56.446 35.745c-3.46.424-6.735-.74-9.212-3.954-1.065-1.236-1.716-2.826-1.955-4.771l19.892-2.443a9.495 9.495 0 0 1-.865 5.387c-1.265 3.032-4.312 5.345-7.86 5.78z"/>
        </g>
        <g opacity=".3">
            <path fill="#87BBFD" d="M1367.66 105.223c-7.51.922-12.91 7.785-11.983 15.337.923 7.511 7.786 12.91 15.338 11.983a13.83 13.83 0 0 0 6.778-2.8l.46-.35 7.033 5.42c.463.362 1.03.544 1.649.468a2.272 2.272 0 0 0 1.487-.853c.362-.464.544-1.03.468-1.65-.076-.619-.384-1.084-.853-1.487l-6.894-5.312.44-.85c1.248-2.457 1.75-5.2 1.415-7.923-.927-7.553-7.785-12.91-15.338-11.983z"/>
            <path fill="#FFF" d="M1370.554 128.788c-5.49.674-10.494-3.236-11.167-8.725-.674-5.489 3.235-10.493 8.724-11.167 5.49-.674 10.494 3.236 11.168 8.724.674 5.49-3.236 10.494-8.725 11.168z"/>
            <path fill="#0052CC" d="M1370.554 128.788c-3.46.424-6.735-.74-9.212-3.953-1.065-1.237-1.717-2.827-1.955-4.772l19.892-2.443a9.495 9.495 0 0 1-.866 5.387c-1.264 3.032-4.312 5.345-7.86 5.78z"/>
        </g>
        <g opacity=".3">
            <path fill="#0052CC" d="M263.22 145.32l16.971-14.24-6.064-7.228a.845.845 0 0 0-1.187-.104l-15.681 13.158a.845.845 0 0 0-.104 1.187l6.065 7.228z"/>
            <path fill="#87BBFD" d="M274.143 163.647l.109.129c.027.032.027.032.086.037.027.032.027.032.086.038.027.032.06.005.087.037.027.032.06.005.086.038a.715.715 0 0 0 .356.03l.06.006c.032-.027.059.005.091-.022s.032-.027.092-.022c.032-.027.032-.027.091-.022l21.102-17.706.075-.173c.032-.027.005-.06.038-.087 0 0 .032-.027.005-.059a.715.715 0 0 0 .031-.356s.005-.06-.022-.092.005-.059-.022-.091l-.044-.183-13.158-15.682c-.054-.064-.113-.07-.167-.134l-.027-.032c-.087-.038-.146-.043-.233-.08l-.059-.005c-.06-.006-.119-.01-.21.011a.322.322 0 0 0-.216.07l-.032.028c-.064.054-.124.049-.188.103l-1.969 1.652-16.971 14.24-1.969 1.652c-.064.054-.129.109-.134.168l-.032.027c-.038.086-.07.113-.107.2-.005.06-.043.146-.048.205l-.005.06c-.005.059.016.15.038.242l.027.032c-.005.06.05.124.103.188l.028.033.027.032 12.995 15.488z"/>
            <path fill="#FFF" fill-rule="nonzero" d="M279.486 147.155l-.006.001.006-.001zm3.744-10.966l1.295.477a.54.54 0 0 1 .318.7l-.13.34-3.973 10.443c-.07.19-.187.359-.339.493-.18.15-.374.241-.577.279l-11.327 2.155a.54.54 0 0 1-.633-.435l-.245-1.357a.54.54 0 0 1 .43-.627l10.345-1.964a.54.54 0 0 0 .404-.34l3.74-9.849a.54.54 0 0 1 .692-.315z"/>
            <path fill="#FFF" d="M265.28 139.208l8.544-7.17a1.748 1.748 0 0 0-2.247-2.678l-8.544 7.17a1.748 1.748 0 1 0 2.247 2.678z"/>
        </g>
        <g opacity=".3">
            <path fill="#0052CC" d="M777.22 63.32l16.971-14.24-6.064-7.228a.845.845 0 0 0-1.187-.104l-15.681 13.158a.845.845 0 0 0-.104 1.187l6.065 7.228z"/>
            <path fill="#87BBFD" d="M788.143 81.647l.109.129c.027.032.027.032.086.037.027.032.027.032.086.038.027.032.06.005.087.037.027.032.06.005.086.038a.715.715 0 0 0 .356.03l.06.006c.032-.027.059.005.091-.022s.032-.027.092-.022c.032-.027.032-.027.091-.022L810.39 64.19l.075-.173c.032-.027.005-.06.038-.087 0 0 .032-.027.005-.059a.715.715 0 0 0 .031-.356s.005-.06-.022-.092.005-.059-.022-.091l-.044-.183-13.158-15.682c-.054-.064-.113-.07-.167-.134l-.027-.032c-.087-.038-.146-.043-.233-.08l-.059-.005c-.06-.006-.119-.01-.21.011a.322.322 0 0 0-.216.07l-.032.028c-.064.054-.124.049-.188.103l-1.969 1.652-16.971 14.24-1.969 1.652c-.064.054-.129.109-.134.168l-.032.027c-.038.086-.07.113-.107.2-.005.06-.043.146-.048.205l-.005.06c-.005.059.016.15.038.242l.027.032c-.005.06.05.124.103.188l.028.033.027.032 12.995 15.488z"/>
            <path fill="#FFF" fill-rule="nonzero" d="M793.486 65.155l-.006.001.006-.001zm3.744-10.966l1.295.477a.54.54 0 0 1 .318.7l-.13.34-3.973 10.443c-.07.19-.187.359-.339.493-.18.15-.374.241-.577.279l-11.327 2.155a.54.54 0 0 1-.633-.435l-.245-1.357a.54.54 0 0 1 .43-.627l10.345-1.964a.54.54 0 0 0 .404-.34l3.74-9.849a.54.54 0 0 1 .692-.315z"/>
            <path fill="#FFF" d="M779.28 57.208l8.544-7.17a1.748 1.748 0 0 0-2.247-2.678l-8.544 7.17a1.748 1.748 0 1 0 2.247 2.678z"/>
        </g>
        <g opacity=".3">
            <path fill="#0052CC" d="M87.22 544.32l16.971-14.24-6.064-7.228a.845.845 0 0 0-1.187-.104l-15.681 13.158a.845.845 0 0 0-.104 1.187l6.065 7.228z"/>
            <path fill="#87BBFD" d="M98.143 562.647l.109.129c.027.032.027.032.086.037.027.032.027.032.086.038.027.032.06.005.087.037.027.032.06.005.086.038a.715.715 0 0 0 .356.03l.06.006c.032-.027.059.005.091-.022s.032-.027.092-.022c.032-.027.032-.027.091-.022l21.102-17.706.075-.173c.032-.027.005-.06.038-.087 0 0 .032-.027.005-.059a.715.715 0 0 0 .031-.356s.005-.06-.022-.092.005-.059-.022-.091l-.044-.183-13.158-15.682c-.054-.064-.113-.07-.167-.134l-.027-.032c-.087-.038-.146-.043-.233-.08l-.059-.005c-.06-.006-.119-.01-.21.011a.322.322 0 0 0-.216.07l-.032.028c-.064.054-.124.049-.188.103l-1.969 1.652-16.971 14.24-1.969 1.652c-.064.054-.129.109-.134.168l-.032.027c-.038.086-.07.113-.107.2-.005.06-.043.146-.048.205l-.005.06c-.005.059.016.15.038.242l.027.032c-.005.06.05.124.103.188l.028.033.027.032 12.995 15.488z"/>
            <path fill="#FFF" fill-rule="nonzero" d="M103.486 546.155l-.006.001.006-.001zm3.744-10.966l1.295.477a.54.54 0 0 1 .318.7l-.13.34-3.973 10.443c-.07.19-.187.359-.339.493-.18.15-.374.241-.577.279l-11.327 2.155a.54.54 0 0 1-.633-.435l-.245-1.357a.54.54 0 0 1 .43-.627l10.345-1.964a.54.54 0 0 0 .404-.34l3.74-9.849a.54.54 0 0 1 .692-.315z"/>
            <path fill="#FFF" d="M89.28 538.208l8.544-7.17a1.748 1.748 0 0 0-2.247-2.678l-8.544 7.17a1.748 1.748 0 1 0 2.247 2.678z"/>
        </g>
        <g opacity=".3">
            <path fill="#0052CC" d="M593.22 557.32l16.971-14.24-6.064-7.228a.845.845 0 0 0-1.187-.104l-15.681 13.158a.845.845 0 0 0-.104 1.187l6.065 7.228z"/>
            <path fill="#87BBFD" d="M604.143 575.647l.109.129c.027.032.027.032.086.037.027.032.027.032.086.038.027.032.06.005.087.037.027.032.06.005.086.038a.715.715 0 0 0 .356.03l.06.006c.032-.027.059.005.091-.022s.032-.027.092-.022c.032-.027.032-.027.091-.022l21.102-17.706.075-.173c.032-.027.005-.06.038-.087 0 0 .032-.027.005-.059a.715.715 0 0 0 .031-.356s.005-.06-.022-.092.005-.059-.022-.091l-.044-.183-13.158-15.682c-.054-.064-.113-.07-.167-.134l-.027-.032c-.087-.038-.146-.043-.233-.08l-.059-.005c-.06-.006-.119-.01-.21.011a.322.322 0 0 0-.216.07l-.032.028c-.064.054-.124.049-.188.103l-1.969 1.652-16.971 14.24-1.969 1.652c-.064.054-.129.109-.134.168l-.032.027c-.038.086-.07.113-.107.2-.005.06-.043.146-.048.205l-.005.06c-.005.059.016.15.038.242l.027.032c-.005.06.05.124.103.188l.028.033.027.032 12.995 15.488z"/>
            <path fill="#FFF" fill-rule="nonzero" d="M609.486 559.155l-.006.001.006-.001zm3.744-10.966l1.295.477a.54.54 0 0 1 .318.7l-.13.34-3.973 10.443c-.07.19-.187.359-.339.493-.18.15-.374.241-.577.279l-11.327 2.155a.54.54 0 0 1-.633-.435l-.245-1.357a.54.54 0 0 1 .43-.627l10.345-1.964a.54.54 0 0 0 .404-.34l3.74-9.849a.54.54 0 0 1 .692-.315z"/>
            <path fill="#FFF" d="M595.28 551.208l8.544-7.17a1.748 1.748 0 0 0-2.247-2.678l-8.544 7.17a1.748 1.748 0 1 0 2.247 2.678z"/>
        </g>
        <g opacity=".3">
            <path fill="#0052CC" d="M285.22 442.32l16.971-14.24-6.064-7.228a.845.845 0 0 0-1.187-.104l-15.681 13.158a.845.845 0 0 0-.104 1.187l6.065 7.228z"/>
            <path fill="#87BBFD" d="M296.143 460.647l.109.129c.027.032.027.032.086.037.027.032.027.032.086.038.027.032.06.005.087.037.027.032.06.005.086.038a.715.715 0 0 0 .356.03l.06.006c.032-.027.059.005.091-.022s.032-.027.092-.022c.032-.027.032-.027.091-.022l21.102-17.706.075-.173c.032-.027.005-.06.038-.087 0 0 .032-.027.005-.059a.715.715 0 0 0 .031-.356s.005-.06-.022-.092.005-.059-.022-.091l-.044-.183-13.158-15.682c-.054-.064-.113-.07-.167-.134l-.027-.032c-.087-.038-.146-.043-.233-.08l-.059-.005c-.06-.006-.119-.01-.21.011a.322.322 0 0 0-.216.07l-.032.028c-.064.054-.124.049-.188.103l-1.969 1.652-16.971 14.24-1.969 1.652c-.064.054-.129.109-.134.168l-.032.027c-.038.086-.07.113-.107.2-.005.06-.043.146-.048.205l-.005.06c-.005.059.016.15.038.242l.027.032c-.005.06.05.124.103.188l.028.033.027.032 12.995 15.488z"/>
            <path fill="#FFF" fill-rule="nonzero" d="M301.486 444.155l-.006.001.006-.001zm3.744-10.966l1.295.477a.54.54 0 0 1 .318.7l-.13.34-3.973 10.443c-.07.19-.187.359-.339.493-.18.15-.374.241-.577.279l-11.327 2.155a.54.54 0 0 1-.633-.435l-.245-1.357a.54.54 0 0 1 .43-.627l10.345-1.964a.54.54 0 0 0 .404-.34l3.74-9.849a.54.54 0 0 1 .692-.315z"/>
            <path fill="#FFF" d="M287.28 436.208l8.544-7.17a1.748 1.748 0 0 0-2.247-2.678l-8.544 7.17a1.748 1.748 0 1 0 2.247 2.678z"/>
        </g>
        <g opacity=".3">
            <path fill="#0052CC" d="M1171.22 22.32l16.971-14.24-6.064-7.228a.845.845 0 0 0-1.187-.104l-15.681 13.158a.845.845 0 0 0-.104 1.187l6.065 7.228z"/>
            <path fill="#87BBFD" d="M1182.143 40.647l.109.129c.027.032.027.032.086.037.027.032.027.032.086.038.027.032.06.005.087.037.027.032.06.005.086.038a.715.715 0 0 0 .356.03l.06.006c.032-.027.059.005.091-.022s.032-.027.092-.022c.032-.027.032-.027.091-.022l21.102-17.706.075-.173c.032-.027.005-.06.038-.087 0 0 .032-.027.005-.059a.715.715 0 0 0 .031-.356s.005-.06-.022-.092.005-.059-.022-.091l-.044-.183-13.158-15.682c-.054-.064-.113-.07-.167-.134l-.027-.032c-.087-.038-.146-.043-.233-.08l-.059-.005c-.06-.006-.119-.01-.21.011a.322.322 0 0 0-.216.07l-.032.028c-.064.054-.124.049-.188.103l-1.969 1.652-16.971 14.24-1.969 1.652c-.064.054-.129.109-.134.168l-.032.027c-.038.086-.07.113-.107.2-.005.06-.043.146-.048.205l-.005.06c-.005.059.016.15.038.242l.027.032c-.005.06.05.124.103.188l.028.033.027.032 12.995 15.488z"/>
            <path fill="#FFF" fill-rule="nonzero" d="M1187.486 24.155l-.006.001.006-.001zm3.744-10.966l1.295.477a.54.54 0 0 1 .318.7l-.13.34-3.973 10.443c-.07.19-.187.359-.339.493-.18.15-.374.241-.577.279l-11.327 2.155a.54.54 0 0 1-.633-.435l-.245-1.357a.54.54 0 0 1 .43-.627l10.345-1.964a.54.54 0 0 0 .404-.34l3.74-9.849a.54.54 0 0 1 .692-.315z"/>
            <path fill="#FFF" d="M1173.28 16.208l8.544-7.17a1.748 1.748 0 0 0-2.247-2.678l-8.544 7.17a1.748 1.748 0 1 0 2.247 2.678z"/>
        </g>
        <g opacity=".3">
            <path fill="#87BBFD" d="M998.413 16.088h-4.304v-3.19a1.115 1.115 0 0 0-2.229 0v3.19h-10.375v-3.19a1.115 1.115 0 0 0-2.229 0v3.19h-4.304a4.198 4.198 0 0 0-4.188 4.188v19.752a4.198 4.198 0 0 0 4.188 4.188h23.44a4.198 4.198 0 0 0 4.19-4.188V20.276a4.198 4.198 0 0 0-4.19-4.188z"/>
            <path fill="#0052CC" d="M974.972 18.316h4.304v1.537a1.115 1.115 0 0 0 2.229 0v-1.537h10.337v1.537a1.115 1.115 0 0 0 2.229 0v-1.537h4.303c1.076 0 1.96.884 1.96 1.96v3.728h-27.321v-3.728c0-1.076.883-1.96 1.96-1.96z"/>
            <path fill="#87BBFD" d="M998.413 41.987h-23.44a1.968 1.968 0 0 1-1.96-1.96V26.272h27.36v13.757c0 1.076-.884 1.96-1.96 1.96z"/>
            <path fill="#FFF" d="M977.577 35.1h18.126a1.748 1.748 0 1 0 0-3.495l-18.126-.001a1.748 1.748 0 0 0 0 3.495z"/>
        </g>
        <g opacity=".3">
            <path fill="#87BBFD" d="M1381.63 261.304h-4.305v-3.19a1.115 1.115 0 0 0-2.229 0v3.19h-10.375v-3.19a1.115 1.115 0 0 0-2.229 0v3.19h-4.303a4.198 4.198 0 0 0-4.189 4.188v19.752a4.198 4.198 0 0 0 4.189 4.188h23.44a4.198 4.198 0 0 0 4.189-4.188v-19.752a4.198 4.198 0 0 0-4.189-4.188z"/>
            <path fill="#0052CC" d="M1358.189 263.533h4.303v1.537a1.115 1.115 0 0 0 2.23 0v-1.537h10.336v1.537a1.115 1.115 0 0 0 2.229 0v-1.537h4.304c1.076 0 1.96.883 1.96 1.96v3.727h-27.322v-3.728c0-1.076.884-1.96 1.96-1.96z"/>
            <path fill="#87BBFD" d="M1381.63 287.204h-23.441a1.968 1.968 0 0 1-1.96-1.96v-13.757h27.36v13.757c0 1.076-.884 1.96-1.96 1.96z"/>
            <path fill="#FFF" d="M1360.793 280.315h18.126a1.748 1.748 0 0 0 0-3.495h-18.126a1.748 1.748 0 1 0 0 3.495z"/>
        </g>
        <g opacity=".3">
            <path fill="#87BBFD" d="M143.217 72.616l.421.354 1.72-2.05c.83-.988 3.245.976 2.347 2.045l-1.682 2.006 9.466 7.942 1.664-1.983c.927-1.105 3.268.948 2.44 1.935l-1.72 2.05.42.352c2.514 2.109 2.421 3.865.872 5.777l-13.096 15.607c-1.638 1.952-3.673 2.376-6.044.387l-15.076-12.65c-2.37-1.989-2.306-4.067-.668-6.019l13.096-15.607c1.613-1.858 3.327-2.255 5.84-.146z"/>
            <path fill="#FFF" d="M128.417 90.055l1.12-1.305c.233-.272.587-.41.943-.37l6.492.741c.212.024.412.11.575.248l5.195 4.387c.16.135.277.313.338.513l1.898 6.277c.105.346.03.72-.199 1l-1.09 1.325a1.081 1.081 0 0 1-1.53.142l-13.616-11.426a1.081 1.081 0 0 1-.126-1.532z"/>
            <path fill="#0052CC" d="M148.29 81.881a5.506 5.506 0 0 1-7.077 8.434 5.506 5.506 0 0 1 7.077-8.434z"/>
        </g>
        <g opacity=".3">
            <path fill="#87BBFD" d="M298.217 285.616l.421.354 1.72-2.05c.83-.988 3.245.976 2.347 2.045l-1.682 2.006 9.466 7.942 1.664-1.983c.927-1.105 3.268.948 2.44 1.935l-1.72 2.05.42.352c2.514 2.109 2.421 3.865.872 5.777l-13.096 15.607c-1.638 1.952-3.673 2.376-6.044.387l-15.076-12.65c-2.37-1.989-2.306-4.067-.668-6.019l13.096-15.607c1.613-1.858 3.327-2.255 5.84-.146z"/>
            <path fill="#FFF" d="M283.417 303.055l1.12-1.305c.233-.272.587-.41.943-.37l6.492.741c.212.024.412.11.575.248l5.195 4.387c.16.135.277.313.338.513l1.898 6.277c.105.346.03.72-.199 1l-1.09 1.325a1.081 1.081 0 0 1-1.53.142l-13.616-11.426a1.081 1.081 0 0 1-.126-1.532z"/>
            <path fill="#0052CC" d="M303.29 294.881a5.506 5.506 0 0 1-7.077 8.434 5.506 5.506 0 0 1 7.077-8.434z"/>
        </g>
        <g opacity=".3">
            <path fill="#87BBFD" d="M1162.217 164.616l.421.354 1.72-2.05c.83-.988 3.245.976 2.347 2.045l-1.682 2.006 9.466 7.942 1.664-1.983c.927-1.105 3.268.948 2.44 1.935l-1.72 2.05.42.352c2.514 2.109 2.421 3.865.872 5.777l-13.096 15.607c-1.638 1.952-3.673 2.376-6.044.387l-15.076-12.65c-2.37-1.989-2.306-4.067-.668-6.019l13.096-15.607c1.613-1.858 3.327-2.255 5.84-.146z"/>
            <path fill="#FFF" d="M1147.417 182.055l1.12-1.305c.233-.272.587-.41.943-.37l6.492.741c.212.024.412.11.575.248l5.195 4.387c.16.135.277.313.338.513l1.898 6.277c.105.346.03.72-.199 1l-1.09 1.325a1.081 1.081 0 0 1-1.53.142l-13.616-11.426a1.081 1.081 0 0 1-.126-1.532z"/>
            <path fill="#0052CC" d="M1167.29 173.881a5.506 5.506 0 0 1-7.077 8.434 5.506 5.506 0 0 1 7.077-8.434z"/>
        </g>
        <g opacity=".3">
            <path fill="#87BBFD" d="M63.73 275.675l-6.08-6.081a2.018 2.018 0 0 0-1.434-.594H42.027c-1.12 0-2.027.908-2.027 2.027v28.378c0 1.12.906 2.027 2.027 2.027h20.27c1.121 0 2.027-.908 2.027-2.027v-22.297c0-.537-.213-1.054-.594-1.433z"/>
            <path fill="#FFF" d="M44.045 279.135h8.102v-4.054h-8.102z"/>
            <path fill="#0052CC" d="M44.045 287.243H60.26v-4.054H44.045zM44.045 295.351H60.26v-4.054H44.045z"/>
        </g>
        <g opacity=".3">
            <path fill="#87BBFD" d="M434.056 56.462l-.89 5.043a3.43 3.43 0 0 0-3.954 2.77 3.43 3.43 0 0 0 2.77 3.954l-.89 5.044c-.488 2.766 1.387 5.444 4.154 5.932l16.81 2.964c2.767.488 5.445-1.387 5.932-4.154l2.965-16.81c.487-2.767-1.388-5.445-4.154-5.933l-16.81-2.964c-2.767-.488-5.445 1.388-5.933 4.154z"/>
            <path fill="#87BBFD" d="M456.502 56.953a3.434 3.434 0 0 1 2.77 3.955l-2.965 16.81a3.434 3.434 0 0 1-3.955 2.77l-16.81-2.964a3.434 3.434 0 0 1-2.77-3.955l.297-1.681a1.715 1.715 0 0 0 1.978-1.385l1.778-10.086a1.715 1.715 0 0 0-1.384-1.977l.296-1.681a3.434 3.434 0 0 1 3.955-2.77l16.81 2.964z"/>
            <path fill="#0052CC" d="M443.156 73.666l.592-3.362a1.715 1.715 0 0 0-1.384-1.977l-3.362-.593a1.715 1.715 0 0 0-1.978 1.385l-.593 3.362a1.715 1.715 0 0 0 1.385 1.977l3.362.593a1.715 1.715 0 0 0 1.978-1.385z"/>
            <path fill="#FFF" d="M442.461 57.944a1.715 1.715 0 0 1 1.385 1.978l-.593 3.362a1.715 1.715 0 0 1-1.978 1.384 1.715 1.715 0 0 1-1.384-1.977l.593-3.362a1.715 1.715 0 0 1 1.977-1.385z"/>
            <g>
                <path fill="#0052CC" d="M448.805 69.72l1.616 2.332 2.196-1.5a.862.862 0 0 1 .648-.144c.46.08.774.518.694.968a.824.824 0 0 1-.36.544l-2.219 1.516 1.564 2.256c.124.18.173.4.135.612a.847.847 0 0 1-.983.672.863.863 0 0 1-.56-.356l-1.547-2.233-2.293 1.566a.863.863 0 0 1-.623.127.847.847 0 0 1-.695-.968.823.823 0 0 1 .336-.528l2.315-1.582-1.631-2.354a.823.823 0 0 1-.136-.612.847.847 0 0 1 .984-.672c.227.04.43.169.56.356z"/>
                <path fill="#FFF" d="M452.547 59.723a1.715 1.715 0 0 1 1.385 1.977l-.593 3.362a1.715 1.715 0 0 1-1.977 1.385 1.715 1.715 0 0 1-1.385-1.978l.593-3.362a1.715 1.715 0 0 1 1.977-1.384z"/>
            </g>
        </g>
        <g opacity=".3">
            <path fill="#87BBFD" d="M1112.056 339.462l-.89 5.043a3.43 3.43 0 0 0-3.954 2.77 3.43 3.43 0 0 0 2.77 3.954l-.89 5.044c-.488 2.766 1.387 5.444 4.154 5.932l16.81 2.964c2.767.488 5.445-1.387 5.932-4.154l2.965-16.81c.487-2.767-1.388-5.445-4.154-5.933l-16.81-2.964c-2.767-.488-5.445 1.388-5.933 4.154z"/>
            <path fill="#87BBFD" d="M1134.502 339.953a3.434 3.434 0 0 1 2.77 3.955l-2.965 16.81a3.434 3.434 0 0 1-3.955 2.77l-16.81-2.964a3.434 3.434 0 0 1-2.77-3.955l.297-1.681a1.715 1.715 0 0 0 1.978-1.385l1.778-10.086a1.715 1.715 0 0 0-1.384-1.977l.296-1.681a3.434 3.434 0 0 1 3.955-2.77l16.81 2.964z"/>
            <path fill="#0052CC" d="M1121.156 356.666l.592-3.362a1.715 1.715 0 0 0-1.384-1.977l-3.362-.593a1.715 1.715 0 0 0-1.978 1.385l-.593 3.362a1.715 1.715 0 0 0 1.385 1.977l3.362.593a1.715 1.715 0 0 0 1.978-1.385z"/>
            <path fill="#FFF" d="M1120.461 340.944a1.715 1.715 0 0 1 1.385 1.978l-.593 3.362a1.715 1.715 0 0 1-1.978 1.384 1.715 1.715 0 0 1-1.384-1.977l.593-3.362a1.715 1.715 0 0 1 1.977-1.385z"/>
            <g>
                <path fill="#0052CC" d="M1126.805 352.72l1.616 2.332 2.196-1.5a.862.862 0 0 1 .648-.144c.46.08.774.518.694.968a.824.824 0 0 1-.36.544l-2.219 1.516 1.564 2.256c.124.18.173.4.135.612a.847.847 0 0 1-.983.672.863.863 0 0 1-.56-.356l-1.547-2.233-2.293 1.566a.863.863 0 0 1-.623.127.847.847 0 0 1-.695-.968.823.823 0 0 1 .336-.528l2.315-1.582-1.631-2.354a.823.823 0 0 1-.136-.612.847.847 0 0 1 .984-.672c.227.04.43.169.56.356z"/>
                <path fill="#FFF" d="M1130.547 342.723a1.715 1.715 0 0 1 1.385 1.977l-.593 3.362a1.715 1.715 0 0 1-1.977 1.385 1.715 1.715 0 0 1-1.385-1.978l.593-3.362a1.715 1.715 0 0 1 1.977-1.384z"/>
            </g>
        </g>
        <g opacity=".3">
            <path fill="#87BBFD" d="M185.972 316.221v-7.348c0-.078 0-.158.018-.232a.446.446 0 0 1 .443-.33c.913-.003 1.827-.004 2.74 0 .266 0 .452.193.464.457.002.035 0 .07 0 .105v12.76c0 .391-.17.564-.557.564h-2.566c-.371 0-.542-.17-.542-.541v-5.435z"/>
            <path fill="#0052CC" d="M184.222 316.437l.002-.506c.002-.326-.182-.55-.544-.545-.862.01-1.725.01-2.589 0-.366-.005-.545.222-.544.545.004 2.39.002 3.329.002 5.72 0 .367.178.546.542.546h2.565c.396 0 .566-.17.566-.57v-4.67-.52zM195.045 319.972v-5.66-.521-.014-.043l.002-.448c.002-.326-.182-.55-.544-.546-.277.004-2.272.004-2.589 0a.588.588 0 0 0-.32.077c-.138.085-.212.234-.223.42a603.602 603.602 0 0 1 .001 3.12l.001.98v4.313c0 .368.177.546.541.546h2.566c.396 0 .565-.17.565-.569v-1.645l.004-.007-.004-.003z"/>
            <path fill="#87BBFD" d="M197.132 302.862c-.086.117-.124.177-.17.23-.946 1.074-1.895 2.146-2.836 3.225-.136.155-.228.173-.413.055-4.034-2.554-9.475-2.166-13.11.924-4.3 3.658-5.354 9.771-2.343 14.454 2.644 4.11 6.495 5.862 11.37 5.298.041-.004.082-.014.154-.027.512 1.52 1.02 3.027 1.555 4.609-.819.093-1.599.216-2.383.265-3.34.21-6.485-.483-9.347-2.225-4.169-2.537-6.714-6.24-7.564-11.05-.66-3.737-.072-7.309 1.82-10.606 2.487-4.336 6.217-7.015 11.131-7.948 3.635-.691 7.101-.105 10.347 1.685.607.334 1.18.73 1.789 1.111z"/>
            <path fill="#0052CC" d="M194.568 330.42c-.52-1.54-1.003-2.982-1.5-4.421-.07-.205.042-.252.177-.326 1.234-.68 2.34-1.517 3.24-2.615 1.587-1.937 2.449-4.156 2.543-6.654.106-2.831-.748-5.36-2.511-7.582-.053-.067-.083-.234-.041-.283 1.005-1.158 2.021-2.308 3.085-3.515 3.335 3.77 4.874 8.103 4.178 13.072-.8 5.716-3.98 9.751-9.17 12.325z"/>
        </g>
        <g opacity=".3">
            <path fill="#87BBFD" d="M831.188 416.437v-7.348c0-.078 0-.158.019-.231a.446.446 0 0 1 .442-.331c.913-.003 1.827-.004 2.74 0 .266.001.452.194.465.457v12.865c0 .392-.17.564-.558.564h-2.566c-.371 0-.542-.17-.542-.541v-5.435z"/>
            <path fill="#0052CC" d="M829.438 416.653c0-.05 0-.184.003-.505.001-.327-.183-.55-.545-.546-.862.01-1.725.011-2.588 0-.367-.005-.545.222-.545.545.004 2.39.002 3.33.002 5.72 0 .367.178.546.542.546h2.565c.396 0 .566-.17.566-.57v-4.67-.52zM840.261 420.189v-5.66-.521-.015-.043l.003-.448c.001-.326-.183-.55-.545-.545-.277.003-2.272.003-2.588 0a.588.588 0 0 0-.32.077c-.14.084-.213.233-.223.419a603.602 603.602 0 0 1 .001 3.12v5.293c0 .368.177.546.542.546h2.565c.396 0 .565-.17.565-.568v-1.646l.005-.006-.005-.003z"/>
            <path fill="#87BBFD" d="M842.348 403.078c-.086.117-.123.177-.17.23-.946 1.074-1.895 2.146-2.836 3.225-.136.155-.228.173-.413.055-4.034-2.553-9.475-2.166-13.109.924-4.3 3.658-5.355 9.771-2.343 14.455 2.643 4.11 6.494 5.861 11.37 5.298.04-.005.081-.015.153-.028l1.555 4.609c-.818.093-1.598.216-2.383.266-3.339.21-6.485-.484-9.346-2.226-4.17-2.537-6.715-6.24-7.565-11.05-.66-3.737-.072-7.308 1.82-10.606 2.487-4.336 6.217-7.014 11.132-7.948 3.634-.691 7.1-.105 10.347 1.685.606.335 1.179.73 1.788 1.111z"/>
            <path fill="#0052CC" d="M839.784 430.637c-.52-1.54-1.003-2.983-1.499-4.422-.07-.205.04-.252.176-.326 1.234-.68 2.34-1.517 3.24-2.615 1.587-1.937 2.45-4.156 2.543-6.654.106-2.831-.748-5.36-2.511-7.582-.053-.067-.083-.234-.04-.282 1.004-1.16 2.02-2.308 3.084-3.516 3.335 3.77 4.875 8.103 4.178 13.072-.8 5.717-3.98 9.751-9.17 12.325z"/>
        </g>
        <g opacity=".3">
            <path fill="#87BBFD" d="M1351.188 499.437v-7.348c0-.078 0-.158.019-.231a.446.446 0 0 1 .442-.331c.913-.003 1.827-.004 2.74 0 .266.001.452.194.465.457v12.865c0 .392-.17.564-.558.564h-2.566c-.371 0-.542-.17-.542-.541v-5.435z"/>
            <path fill="#0052CC" d="M1349.438 499.653c0-.05 0-.184.003-.505.001-.327-.183-.55-.545-.546-.862.01-1.725.011-2.588 0-.367-.005-.545.222-.545.545.004 2.39.002 3.33.002 5.72 0 .367.178.546.542.546h2.565c.396 0 .566-.17.566-.57v-4.67-.52zM1360.261 503.189v-5.66-.521-.015-.043l.003-.448c.001-.326-.183-.55-.545-.545-.277.003-2.272.003-2.588 0a.588.588 0 0 0-.32.077c-.14.084-.213.233-.223.419a603.602 603.602 0 0 1 .001 3.12v5.293c0 .368.177.546.542.546h2.565c.396 0 .565-.17.565-.568v-1.646l.005-.006-.005-.003z"/>
            <path fill="#87BBFD" d="M1362.348 486.078c-.086.117-.123.177-.17.23-.946 1.074-1.895 2.146-2.836 3.225-.136.155-.228.173-.413.055-4.034-2.553-9.475-2.166-13.109.924-4.3 3.658-5.355 9.771-2.343 14.455 2.643 4.11 6.494 5.861 11.37 5.298.04-.005.081-.015.153-.028l1.555 4.609c-.818.093-1.598.216-2.383.266-3.339.21-6.485-.484-9.346-2.226-4.17-2.537-6.715-6.24-7.565-11.05-.66-3.737-.072-7.308 1.82-10.606 2.487-4.336 6.217-7.014 11.132-7.948 3.634-.691 7.1-.105 10.347 1.685.606.335 1.179.73 1.788 1.111z"/>
            <path fill="#0052CC" d="M1359.784 513.637c-.52-1.54-1.003-2.983-1.499-4.422-.07-.205.04-.252.176-.326 1.234-.68 2.34-1.517 3.24-2.615 1.587-1.937 2.45-4.156 2.543-6.654.106-2.831-.748-5.36-2.511-7.582-.053-.067-.083-.234-.04-.282 1.004-1.16 2.02-2.308 3.084-3.516 3.335 3.77 4.875 8.103 4.178 13.072-.8 5.717-3.98 9.751-9.17 12.325z"/>
        </g>
        <g opacity=".3">
            <path fill="#87BBFD" d="M501.06 369.715a5.253 5.253 0 0 0-3.978-5.068v-2.069a5.49 5.49 0 0 0-5.48-5.48h-9.544v-1.69a2.238 2.238 0 1 0-1.098 0v1.69h-9.577a5.49 5.49 0 0 0-5.49 5.48v2.086a5.245 5.245 0 0 0 0 10.135v.709a5.49 5.49 0 0 0 5.49 5.456h20.184a5.49 5.49 0 0 0 5.481-5.481v-.676a5.261 5.261 0 0 0 4.012-5.092z"/>
            <path fill="#0052CC" d="M480.369 353.288a1.14 1.14 0 1 1 0 .009v-.009zM463.183 369.715a4.163 4.163 0 0 1 2.744-3.91v7.828a4.223 4.223 0 0 1-2.744-3.918z"/>
            <path fill="#87BBFD" d="M495.984 375.483a4.392 4.392 0 0 1-4.383 4.383h-20.218a4.392 4.392 0 0 1-4.392-4.383v-12.905a4.392 4.392 0 0 1 4.392-4.383h20.184a4.392 4.392 0 0 1 4.383 4.383l.034 12.905z"/>
            <path fill="#0052CC" d="M497.082 373.667v-7.905a4.155 4.155 0 0 1 0 7.905z"/>
            <path fill="#FFF" d="M478.984 366.43a3.235 3.235 0 1 0-3.243 3.225h.008a3.235 3.235 0 0 0 3.235-3.226z"/>
            <path fill="#0052CC" d="M473.621 366.43a2.128 2.128 0 1 1 2.128 2.128 2.137 2.137 0 0 1-2.111-2.129h-.017z"/>
            <path fill="#FFF" d="M487.21 363.203a3.226 3.226 0 1 0 3.226 3.226 3.235 3.235 0 0 0-3.226-3.226z"/>
            <path fill="#0052CC" d="M487.21 368.558a2.128 2.128 0 1 1 2.128-2.129 2.128 2.128 0 0 1-2.128 2.129zM486.686 374.57a12.668 12.668 0 0 1-10.388 0 .549.549 0 0 0-.456.997 13.74 13.74 0 0 0 5.473 1.216h.202c1.949 0 3.875-.414 5.65-1.216a.54.54 0 0 0 .279-.726.557.557 0 0 0-.76-.27z"/>
        </g>
        <g opacity=".3">
            <path fill="#87BBFD" d="M1141.06 545.715a5.253 5.253 0 0 0-3.978-5.068v-2.069a5.49 5.49 0 0 0-5.48-5.48h-9.544v-1.69a2.238 2.238 0 1 0-1.098 0v1.69h-9.577a5.49 5.49 0 0 0-5.49 5.48v2.086a5.245 5.245 0 0 0 0 10.135v.709a5.49 5.49 0 0 0 5.49 5.456h20.184a5.49 5.49 0 0 0 5.481-5.481v-.676a5.261 5.261 0 0 0 4.012-5.092z"/>
            <path fill="#0052CC" d="M1120.369 529.288a1.14 1.14 0 1 1 0 .009v-.009zM1103.183 545.715a4.163 4.163 0 0 1 2.744-3.91v7.828a4.223 4.223 0 0 1-2.744-3.918z"/>
            <path fill="#87BBFD" d="M1135.984 551.483a4.392 4.392 0 0 1-4.383 4.383h-20.218a4.392 4.392 0 0 1-4.392-4.383v-12.905a4.392 4.392 0 0 1 4.392-4.383h20.184a4.392 4.392 0 0 1 4.383 4.383l.034 12.905z"/>
            <path fill="#0052CC" d="M1137.082 549.667v-7.905a4.155 4.155 0 0 1 0 7.905z"/>
            <path fill="#FFF" d="M1118.984 542.43a3.235 3.235 0 1 0-3.243 3.225h.008a3.235 3.235 0 0 0 3.235-3.226z"/>
            <path fill="#0052CC" d="M1113.621 542.43a2.128 2.128 0 1 1 2.128 2.128 2.137 2.137 0 0 1-2.111-2.129h-.017z"/>
            <path fill="#FFF" d="M1127.21 539.203a3.226 3.226 0 1 0 3.226 3.226 3.235 3.235 0 0 0-3.226-3.226z"/>
            <path fill="#0052CC" d="M1127.21 544.558a2.128 2.128 0 1 1 2.128-2.129 2.128 2.128 0 0 1-2.128 2.129zM1126.686 550.57a12.668 12.668 0 0 1-10.388 0 .549.549 0 0 0-.456.997 13.74 13.74 0 0 0 5.473 1.216h.202c1.949 0 3.875-.414 5.65-1.216a.54.54 0 0 0 .279-.726.557.557 0 0 0-.76-.27z"/>
        </g>
        <g opacity=".3">
            <path fill="#87BBFD" d="M39.06 421.715a5.253 5.253 0 0 0-3.978-5.068v-2.069a5.49 5.49 0 0 0-5.48-5.48h-9.544v-1.69a2.238 2.238 0 1 0-1.098 0v1.69H9.383a5.49 5.49 0 0 0-5.49 5.48v2.086a5.245 5.245 0 0 0 0 10.135v.709a5.49 5.49 0 0 0 5.49 5.456h20.184a5.49 5.49 0 0 0 5.481-5.481v-.676a5.261 5.261 0 0 0 4.012-5.092z"/>
            <path fill="#0052CC" d="M18.369 405.288a1.14 1.14 0 1 1 0 .009v-.009zM1.183 421.715a4.163 4.163 0 0 1 2.744-3.91v7.828a4.223 4.223 0 0 1-2.744-3.918z"/>
            <path fill="#87BBFD" d="M33.984 427.483a4.392 4.392 0 0 1-4.383 4.383H9.383a4.392 4.392 0 0 1-4.392-4.383v-12.905a4.392 4.392 0 0 1 4.392-4.383h20.184a4.392 4.392 0 0 1 4.383 4.383l.034 12.905z"/>
            <path fill="#0052CC" d="M35.082 425.667v-7.905a4.155 4.155 0 0 1 0 7.905z"/>
            <path fill="#FFF" d="M16.984 418.43a3.235 3.235 0 1 0-3.243 3.225h.008a3.235 3.235 0 0 0 3.235-3.226z"/>
            <path fill="#0052CC" d="M11.621 418.43a2.128 2.128 0 1 1 2.128 2.128 2.137 2.137 0 0 1-2.111-2.129h-.017z"/>
            <path fill="#FFF" d="M25.21 415.203a3.226 3.226 0 1 0 3.226 3.226 3.235 3.235 0 0 0-3.226-3.226z"/>
            <path fill="#0052CC" d="M25.21 420.558a2.128 2.128 0 1 1 2.128-2.129 2.128 2.128 0 0 1-2.128 2.129zM24.686 426.57a12.668 12.668 0 0 1-10.388 0 .549.549 0 0 0-.456.997 13.74 13.74 0 0 0 5.473 1.216h.202c1.949 0 3.875-.414 5.65-1.216a.54.54 0 0 0 .279-.726.557.557 0 0 0-.76-.27z"/>
        </g>
        <g opacity=".3">
            <path fill="#87BBFD" d="M1336.06 46.715a5.253 5.253 0 0 0-3.978-5.068v-2.069a5.49 5.49 0 0 0-5.48-5.48h-9.544v-1.69a2.238 2.238 0 1 0-1.098 0v1.69h-9.577a5.49 5.49 0 0 0-5.49 5.48v2.086a5.245 5.245 0 0 0 0 10.135v.709a5.49 5.49 0 0 0 5.49 5.456h20.184a5.49 5.49 0 0 0 5.481-5.481v-.676a5.261 5.261 0 0 0 4.012-5.092z"/>
            <path fill="#0052CC" d="M1315.369 30.288a1.14 1.14 0 1 1 0 .009v-.009zM1298.183 46.715a4.163 4.163 0 0 1 2.744-3.91v7.828a4.223 4.223 0 0 1-2.744-3.918z"/>
            <path fill="#87BBFD" d="M1330.984 52.483a4.392 4.392 0 0 1-4.383 4.383h-20.218a4.392 4.392 0 0 1-4.392-4.383V39.578a4.392 4.392 0 0 1 4.392-4.383h20.184a4.392 4.392 0 0 1 4.383 4.383l.034 12.905z"/>
            <path fill="#0052CC" d="M1332.082 50.667v-7.905a4.155 4.155 0 0 1 0 7.905z"/>
            <path fill="#FFF" d="M1313.984 43.43a3.235 3.235 0 1 0-3.243 3.225h.008a3.235 3.235 0 0 0 3.235-3.226z"/>
            <path fill="#0052CC" d="M1308.621 43.43a2.128 2.128 0 1 1 2.128 2.128 2.137 2.137 0 0 1-2.111-2.129h-.017z"/>
            <path fill="#FFF" d="M1322.21 40.203a3.226 3.226 0 1 0 3.226 3.226 3.235 3.235 0 0 0-3.226-3.226z"/>
            <path fill="#0052CC" d="M1322.21 45.558a2.128 2.128 0 1 1 2.128-2.129 2.128 2.128 0 0 1-2.128 2.129zM1321.686 51.57a12.668 12.668 0 0 1-10.388 0 .549.549 0 0 0-.456.997 13.74 13.74 0 0 0 5.473 1.216h.202c1.949 0 3.875-.414 5.65-1.216a.54.54 0 0 0 .279-.726.557.557 0 0 0-.76-.27z"/>
        </g>
        <g opacity=".3">
            <path fill="#87BBFD" d="M998.54 312.717a4.664 4.664 0 0 0 4.623-4.662 4.674 4.674 0 0 0-3.75-4.58h-.001v-3.691h-18.634v3.691a4.674 4.674 0 0 0-3.751 4.58 4.665 4.665 0 0 0 4.625 4.662c.838 2.312 2.469 4.543 5.604 5.383l-2.638 7.393h.03l-4.02 2.653v3.87h18.933v-3.788l-3.99-2.735-2.635-7.387c3.138-.84 4.766-3.075 5.604-5.389z"/>
            <path fill="#87BBFD" d="M999.413 305.013a3.177 3.177 0 0 1 2.255 3.042 3.16 3.16 0 0 1-2.675 3.122c.354-1.547.419-2.995.419-3.93v-2.234zM978.522 308.055c0-1.435.949-2.645 2.256-3.042v2.234c0 .934.068 2.384.419 3.93a3.159 3.159 0 0 1-2.675-3.122z"/>
            <path fill="#FFF" d="M993.737 325.492h-7.284l2.53-7.092c.357.032.725.054 1.112.054.388 0 .756-.022 1.113-.054l2.529 7.092z"/>
            <path fill="#0052CC" d="M990.095 316.96c-2.6 0-5.552-.896-6.971-4.468a9.235 9.235 0 0 1-.448-1.427c-.262-1.075-.403-2.338-.403-3.817v-5.97h15.645v5.97c0 1.485-.147 2.75-.407 3.83-.014.063-.034.12-.049.18-.069.268-.145.524-.227.768a5.535 5.535 0 0 1-.1.276c-1.39 3.726-4.399 4.658-7.04 4.658z"/>
            <path fill="#FFF" d="M991.537 306.772l-1.217-2.463-1.211 2.463-2.72.397 1.969 1.913-.47 2.71 2.432-1.278 2.437 1.279-.466-2.711 1.965-1.913z"/>
        </g>
        <g opacity=".3">
            <path fill="#87BBFD" d="M396.513 528.933a4.664 4.664 0 0 0 4.623-4.662 4.674 4.674 0 0 0-3.75-4.58h-.001V516h-18.634v3.691a4.674 4.674 0 0 0-3.751 4.58 4.665 4.665 0 0 0 4.625 4.662c.838 2.313 2.469 4.543 5.604 5.383l-2.638 7.393h.03l-4.02 2.653v3.87h18.933v-3.788l-3.99-2.735-2.635-7.387c3.138-.84 4.766-3.075 5.604-5.389z"/>
            <path fill="#87BBFD" d="M397.386 521.23a3.177 3.177 0 0 1 2.255 3.04 3.16 3.16 0 0 1-2.675 3.123c.354-1.547.419-2.995.419-3.93v-2.234zM376.495 524.27c0-1.434.949-2.644 2.256-3.04v2.234c0 .934.068 2.383.419 3.93a3.159 3.159 0 0 1-2.675-3.123z"/>
            <path fill="#FFF" d="M391.71 541.709h-7.284l2.53-7.093c.357.033.724.054 1.112.054.388 0 .756-.021 1.113-.054l2.529 7.093z"/>
            <path fill="#0052CC" d="M388.068 533.177c-2.6 0-5.552-.897-6.971-4.468a9.235 9.235 0 0 1-.448-1.427c-.262-1.076-.403-2.338-.403-3.818v-5.97h15.645v5.97c0 1.486-.147 2.75-.407 3.83-.014.063-.034.12-.049.181-.069.267-.145.523-.227.767a5.535 5.535 0 0 1-.1.276c-1.39 3.726-4.399 4.659-7.04 4.659z"/>
            <path fill="#FFF" d="M389.51 522.988l-1.218-2.462-1.21 2.462-2.72.398 1.969 1.912-.47 2.711 2.431-1.28 2.438 1.28-.466-2.711 1.965-1.912z"/>
        </g>
    </g>
</svg>
